…
dplyr package 
Part of the tidyverse, `dplyr is used to transform data frames by extracting, rearranging, and summarizing data such that they are focused on a question of interest. This is very helpful,  especially when wrangling large data, and makes dplyr one of most frequently used packages in the tidyverse. The two functions we will use most are `select()` and `filter()`.  

```r
#Use select() to only view specific columns in names(), choose as many as you want.
select(ca_colleges, "ADM_RATE","SAT_AVG")
```

```
## # A tibble: 341 × 2
##    ADM_RATE SAT_AVG
##       <dbl>   <dbl>
##  1       NA      NA
##  2       NA      NA
##  3       NA      NA
##  4       NA      NA
##  5       NA      NA
##  6       NA      NA
##  7       NA      NA
##  8       NA      NA
##  9       NA      NA
## 10       NA      NA
## # ℹ 331 more rows
```
Let's assign these two columns to their own object, college_stats.

```r
 college_stats <- select(ca_colleges, "ADM_RATE","SAT_AVG")
```

You can select several columns adjacent to each other.

```r
select(ca_colleges, CITY:COSTT4_A)
```

```
## # A tibble: 341 × 7
##    CITY      STABBR ZIP        ADM_RATE SAT_AVG PCIP26 COSTT4_A
##    <chr>     <chr>  <chr>         <dbl>   <dbl>  <dbl>    <dbl>
##  1 El Cajon  CA     92020-1799       NA      NA 0.0016     7956
##  2 Visalia   CA     93277-2214       NA      NA 0.0066     8109
##  3 San Mateo CA     94402-3784       NA      NA 0.0038     8278
##  4 Ventura   CA     93003-3872       NA      NA 0.0035     8407
##  5 Oxnard    CA     93033-6699       NA      NA 0.0085     8516
##  6 Moorpark  CA     93021-1695       NA      NA 0.0151     8577
##  7 San Bruno CA     94066-1698       NA      NA 0          8580
##  8 Glendale  CA     91208-2894       NA      NA 0.002      9181
##  9 Glendora  CA     91741-1899       NA      NA 0.0021     9281
## 10 Fresno    CA     93741            NA      NA 0.0324     9370
## # ℹ 331 more rows
```
Other ways to use select():

```r
select(ca_colleges, contains("C"))
```

```
## # A tibble: 341 × 4
##    CITY      PCIP26 COSTT4_A C150_4_POOLED
##    <chr>      <dbl>    <dbl>         <dbl>
##  1 El Cajon  0.0016     7956        NA    
##  2 Visalia   0.0066     8109        NA    
##  3 San Mateo 0.0038     8278        NA    
##  4 Ventura   0.0035     8407        NA    
##  5 Oxnard    0.0085     8516        NA    
##  6 Moorpark  0.0151     8577        NA    
##  7 San Bruno 0          8580         0.233
##  8 Glendale  0.002      9181        NA    
##  9 Glendora  0.0021     9281        NA    
## 10 Fresno    0.0324     9370        NA    
## # ℹ 331 more rows
```

```r
#select all except specified column names
select(ca_colleges, -INSTNM, -ZIP, -C150_4_POOLED)
```

```
## # A tibble: 341 × 7
##    CITY      STABBR ADM_RATE SAT_AVG PCIP26 COSTT4_A PFTFTUG1_EF
##    <chr>     <chr>     <dbl>   <dbl>  <dbl>    <dbl>       <dbl>
##  1 El Cajon  CA           NA      NA 0.0016     7956       0.355
##  2 Visalia   CA           NA      NA 0.0066     8109       0.541
##  3 San Mateo CA           NA      NA 0.0038     8278       0.357
##  4 Ventura   CA           NA      NA 0.0035     8407       0.382
##  5 Oxnard    CA           NA      NA 0.0085     8516       0.275
##  6 Moorpark  CA           NA      NA 0.0151     8577       0.429
##  7 San Bruno CA           NA      NA 0          8580       0.231
##  8 Glendale  CA           NA      NA 0.002      9181       0.421
##  9 Glendora  CA           NA      NA 0.0021     9281       0.440
## 10 Fresno    CA           NA      NA 0.0324     9370       0.366
## # ℹ 331 more rows
```

```r
#select columns based on starting letter(s)
select(ca_colleges, starts_with("S"))
```

```
## # A tibble: 341 × 2
##    STABBR SAT_AVG
##    <chr>    <dbl>
##  1 CA          NA
##  2 CA          NA
##  3 CA          NA
##  4 CA          NA
##  5 CA          NA
##  6 CA          NA
##  7 CA          NA
##  8 CA          NA
##  9 CA          NA
## 10 CA          NA
## # ℹ 331 more rows
```

```r
#select columns based on ending letter(s)
select(ca_colleges, ends_with("E"))
```

```
## # A tibble: 341 × 1
##    ADM_RATE
##       <dbl>
##  1       NA
##  2       NA
##  3       NA
##  4       NA
##  5       NA
##  6       NA
##  7       NA
##  8       NA
##  9       NA
## 10       NA
## # ℹ 331 more rows
```
You can also rename your column names with rename().

```r
ca_colleges <- rename(ca_colleges,inst_name="INSTNM")  #this is one but you can change as many as you want, just seperate with commas 
ca_colleges  #check your work
```

```
## # A tibble: 341 × 10
##    inst_name   CITY  STABBR ZIP   ADM_RATE SAT_AVG PCIP26 COSTT4_A C150_4_POOLED
##    <chr>       <chr> <chr>  <chr>    <dbl>   <dbl>  <dbl>    <dbl>         <dbl>
##  1 Grossmont … El C… CA     9202…       NA      NA 0.0016     7956        NA    
##  2 College of… Visa… CA     9327…       NA      NA 0.0066     8109        NA    
##  3 College of… San … CA     9440…       NA      NA 0.0038     8278        NA    
##  4 Ventura Co… Vent… CA     9300…       NA      NA 0.0035     8407        NA    
##  5 Oxnard Col… Oxna… CA     9303…       NA      NA 0.0085     8516        NA    
##  6 Moorpark C… Moor… CA     9302…       NA      NA 0.0151     8577        NA    
##  7 Skyline Co… San … CA     9406…       NA      NA 0          8580         0.233
##  8 Glendale C… Glen… CA     9120…       NA      NA 0.002      9181        NA    
##  9 Citrus Col… Glen… CA     9174…       NA      NA 0.0021     9281        NA    
## 10 Fresno Cit… Fres… CA     93741       NA      NA 0.0324     9370        NA    
## # ℹ 331 more rows
## # ℹ 1 more variable: PFTFTUG1_EF <dbl>
```
…
`filter()` allows all of the expected operators; i.e. >, >=, <, <=, != (not equal), and == (equal).

What colleges have an admission rate between 10% and 50%?

```r
filter(ca_colleges, between(ADM_RATE, .1, .5))
```

```
## # A tibble: 32 × 10
##    inst_name   CITY  STABBR ZIP   ADM_RATE SAT_AVG PCIP26 COSTT4_A C150_4_POOLED
##    <chr>       <chr> <chr>  <chr>    <dbl>   <dbl>  <dbl>    <dbl>         <dbl>
##  1 California… Cars… CA     9074…    0.479      NA 0.03      13027         0.384
##  2 California… Nort… CA     91330    0.482     918 0.0341    16591         0.502
##  3 California… Full… CA     9283…    0.482    1017 0.0323    17049         0.621
##  4 California… Long… CA     9084…    0.319    1052 0.0377    18192         0.679
##  5 San Diego … San … CA     92182    0.346    1132 0.0389    22056         0.706
##  6 California… San … CA     93407    0.295    1270 0.0651    25300         0.776
##  7 University… La J… CA     92093    0.357    1324 0.216     31043         0.872
##  8 University… Irvi… CA     92697    0.406    1206 0.107     31198         0.876
##  9 University… Los … CA     9009…    0.180    1334 0.155     33078         0.911
## 10 University… Davis CA     9561…    0.423    1218 0.198     33904         0.850
## # ℹ 22 more rows
## # ℹ 1 more variable: PFTFTUG1_EF <dbl>
```
…
```r
filter(ca_colleges, CITY == "San Francisco" | COSTT4_A >= 20000)  #here we are looking for colleges in San Francisco or colleges with a cost 4 attendance >= $20000
```

```
## # A tibble: 106 × 10
##    inst_name   CITY  STABBR ZIP   ADM_RATE SAT_AVG PCIP26 COSTT4_A C150_4_POOLED
##    <chr>       <chr> <chr>  <chr>    <dbl>   <dbl>  <dbl>    <dbl>         <dbl>
##  1 City Colle… San … CA     9411…   NA          NA 0.0032    10333        NA    
##  2 Santa Barb… Bake… CA     93309   NA          NA 0         20028         0.466
##  3 California… Hayw… CA     94542    0.698      NA 0.0501    20303         0.465
##  4 Lincoln Un… Oakl… CA     9461…   NA          NA 0         21195         0.697
##  5 California… Pomo… CA     91768    0.592    1045 0.0453    21223         0.652
##  6 Shasta Bib… Redd… CA     96002    1          NA 0         22005         0.426
##  7 San Diego … San … CA     92182    0.346    1132 0.0389    22056         0.706
##  8 California… Vall… CA     94590    0.682      NA 0         22204         0.599
##  9 Southern C… Whit… CA     90604   NA          NA 0.136     22229        NA    
## 10 San Franci… San … CA     94132    0.682     979 0.0729    22396         0.522
## # ℹ 96 more rows
## # ℹ 1 more variable: PFTFTUG1_EF <dbl>
```
…
